B+
B+
B+
B+
C+
C+
A
A
B+
A
A-
B+
A
B+
B-
C+
A
A
C-
B+
B+
B+
D+
B+
D+
B+
B-
B+
A
B
B-
A
B+
D+
A
B+
B
B-
C-
A
B+
B+
A
B+
B+
B+
A
B+
B+
B+
B+
A
B+
B+
B+
A
B+
F
B+
A
B+
A
C+
D+
A
B+
A
B+
B+
B+
D+
B+
B+
A
C+
B+
B+
A
A
D+
A
B+
A
B+
D+
B+
B-
B+
A
B+
B+
B+
B
A
A
A
D+
B+
B+
B+
B+
B+
B+
B+
C
B+
A
A
B+
A
B+
B+
B+
C
D+
A
B
A
B+
B+
B-
B+
B+
C+
B+
A
B+
A
B+
D+
B+
A
D+
B+
B+
B+
B+
B+
B+
B+
B+
A
D+
B+
D+
B+
D+
B+
A
C-
D+
B-
B+
B+
A
A
D+
B+
B+
B+
B+
D+
A
A-
F
A
B-
B+
A
B
B+
B+
F
B+
A-
C+
A
D+
B+
B-
C+
D+
A
B+
B+
B+
B-
B+
B+
B+
B+
F
A
B+
B+
A
B-
B+
A
A-
B-
B+
B
B
B+
B+
B+
B
A
B+
C+
B+
B
C+
A
B+
A
C+
B+
B+
A
